{
  "page":1,
  "per_page":10,
  "total":100,
  "total_pages":10,
  "data":
  [{
      "task_id":0,
      "timestamp":1555512454240,
      "status":"REVIEW",
      "task_name":"Authoritatively Supply Cloud-centric Process Improvements",
      "priority":4.42
    },
    {
      "task_id":1,
      "timestamp":1553918336196,
      "status":"REVIEW",
      "task_name":"Completely Iterate High-quality Schemas",
      "priority":8.06
    },
    {
      "task_id":2,
      "timestamp":1560207582311,
      "status":"CLOSED",
      "task_name":"Credibly Mesh Professional Methods Of Empowerment",
      "priority":19.55
    },
    {
      "task_id":3,
      "timestamp":1547598771792,
      "status":"REVIEW",
      "task_name":"Interactively Disseminate Agile Catalysts For Change",
      "priority":7.67
    },
    {
      "task_id":4,
      "timestamp":1554240798496,
      "status":"ACTIVE",
      "task_name":"Assertively Empower Resource-sucking Testing Procedures",
      "priority":0
    },
    {
      "task_id":5,
      "timestamp":1552525258442,
      "status":"REVIEW",
      "task_name":"Interactively Grow Magnetic Human Capital",
      "priority":9.49
    },
    {
      "task_id":6,
      "timestamp":1552070631752,
      "status":"CLOSED",
      "task_name":"Objectively Network Alternative Outsourcing",
      "priority":68.8
    },
    {
      "task_id":7,
      "timestamp":1553776263672,
      "status":"REVIEW",
      "task_name":"Fungibly Empower Visionary Models",
      "priority":5.41
    },
    {
      "task_id":8,
      "timestamp":1556931364850,
      "status":"CLOSED",
      "task_name":"Authoritatively Mesh Sticky Sprints",
      "priority":11.87
    },
    {
      "task_id":9,
      "timestamp":1552799232246,
      "status":"CLOSED",
      "task_name":"Assertively Cloudify Revolutionary Platforms",
      "priority":59.76
    }]
}
